{
  "name": "snapshot_rollback",
  "do": "<ul><li>To rollback a snapshot, backup, or data saved, to a previous state.</li></ul>",
  "dont": "-",
  "tags": ["snapshot", "rollback", "previous state", "backup"]
}
